999
DXF file generated by Cheetah3D
0
SECTION
2
ENTITIES
0
3DFACE
8
stadium_lights_style1
10
-0.084264
20
-0.048685
30
0.000056
11
-0.084264
21
-0.048685
31
3.017561
12
0.000000
22
-0.097369
32
3.017561
13
0.000000
23
-0.097369
33
0.000056
0
3DFACE
8
stadium_lights_style1
10
-0.084264
20
0.048685
30
0.000056
11
-0.084264
21
0.048685
31
3.017561
12
-0.084264
22
-0.048685
32
3.017561
13
-0.084264
23
-0.048685
33
0.000056
0
3DFACE
8
stadium_lights_style1
10
-0.000000
20
0.097370
30
0.000056
11
-0.000000
21
0.097369
31
3.017561
12
-0.084264
22
0.048685
32
3.017561
13
-0.084264
23
0.048685
33
0.000056
0
3DFACE
8
stadium_lights_style1
10
0.084264
20
0.048685
30
0.000056
11
0.084264
21
0.048685
31
3.017561
12
-0.000000
22
0.097369
32
3.017561
13
-0.000000
23
0.097370
33
0.000056
0
3DFACE
8
stadium_lights_style1
10
0.084264
20
-0.048685
30
0.000056
11
0.084264
21
-0.048685
31
3.017561
12
0.084264
22
0.048685
32
3.017561
13
0.084264
23
0.048685
33
0.000056
0
3DFACE
8
stadium_lights_style1
10
0.000000
20
-0.097369
30
0.000056
11
0.000000
21
-0.097369
31
3.017561
12
0.084264
22
-0.048685
32
3.017561
13
0.084264
23
-0.048685
33
0.000056
0
3DFACE
8
stadium_lights_style1
10
0.084264
20
-0.048685
30
3.017561
11
0.000000
21
-0.097369
31
3.017561
12
0.000000
22
-0.000000
32
3.017561
13
0.000000
23
-0.000000
33
3.017561
0
3DFACE
8
stadium_lights_style1
10
0.084264
20
0.048685
30
3.017561
11
0.084264
21
-0.048685
31
3.017561
12
0.000000
22
-0.000000
32
3.017561
13
0.000000
23
-0.000000
33
3.017561
0
3DFACE
8
stadium_lights_style1
10
-0.000000
20
0.097369
30
3.017561
11
0.084264
21
0.048685
31
3.017561
12
0.000000
22
-0.000000
32
3.017561
13
0.000000
23
-0.000000
33
3.017561
0
3DFACE
8
stadium_lights_style1
10
-0.084264
20
0.048685
30
3.017561
11
-0.000000
21
0.097369
31
3.017561
12
0.000000
22
-0.000000
32
3.017561
13
0.000000
23
-0.000000
33
3.017561
0
3DFACE
8
stadium_lights_style1
10
-0.084264
20
-0.048685
30
3.017561
11
-0.084264
21
0.048685
31
3.017561
12
0.000000
22
-0.000000
32
3.017561
13
0.000000
23
-0.000000
33
3.017561
0
3DFACE
8
stadium_lights_style1
10
0.000000
20
-0.097369
30
3.017561
11
-0.084264
21
-0.048685
31
3.017561
12
0.000000
22
-0.000000
32
3.017561
13
0.000000
23
-0.000000
33
3.017561
0
3DFACE
8
stadium_lights_style1
10
-0.184707
20
-0.127235
30
1.976383
11
-0.184707
21
0.063619
31
2.086573
12
-0.184707
22
-0.063617
32
2.086573
13
-0.184707
23
-0.063617
33
2.086573
0
3DFACE
8
stadium_lights_style1
10
-0.184707
20
0.063619
30
2.086573
11
-0.184707
21
0.063619
31
1.866194
12
-0.184707
22
0.127237
32
1.976383
13
-0.184707
23
0.127237
33
1.976383
0
3DFACE
8
stadium_lights_style1
10
-0.184707
20
0.063619
30
1.866194
11
-0.184707
21
-0.127235
31
1.976383
12
-0.184707
22
-0.063617
32
1.866194
13
-0.184707
23
-0.063617
33
1.866194
0
3DFACE
8
stadium_lights_style1
10
-0.184707
20
-0.127235
30
1.976383
11
-0.184707
21
0.063619
31
1.866194
12
-0.184707
22
0.063619
32
2.086573
13
-0.184707
23
0.063619
33
2.086573
0
3DFACE
8
stadium_lights_style1
10
-0.184707
20
-0.063617
30
1.866194
11
-0.184707
21
-0.127235
31
1.976383
12
-0.099539
22
-0.037909
32
1.976383
13
-0.099539
23
-0.018954
33
1.943552
0
3DFACE
8
stadium_lights_style1
10
-0.184707
20
-0.127235
30
1.976383
11
-0.184707
21
-0.063617
31
2.086573
12
-0.099539
22
-0.018954
32
2.009214
13
-0.099539
23
-0.037909
33
1.976383
0
3DFACE
8
stadium_lights_style1
10
-0.184707
20
-0.063617
30
2.086573
11
-0.184707
21
0.063619
31
2.086573
12
-0.099539
22
0.018956
32
2.009214
13
-0.099539
23
-0.018954
33
2.009214
0
3DFACE
8
stadium_lights_style1
10
-0.184707
20
0.063619
30
2.086573
11
-0.184707
21
0.127237
31
1.976383
12
-0.099539
22
0.037911
32
1.976383
13
-0.099539
23
0.018956
33
2.009214
0
3DFACE
8
stadium_lights_style1
10
-0.184707
20
0.127237
30
1.976383
11
-0.184707
21
0.063619
31
1.866194
12
-0.099539
22
0.018956
32
1.943552
13
-0.099539
23
0.037911
33
1.976383
0
3DFACE
8
stadium_lights_style1
10
-0.184707
20
0.063619
30
1.866194
11
-0.184707
21
-0.063617
31
1.866194
12
-0.099539
22
-0.018954
32
1.943552
13
-0.099539
23
0.018956
33
1.943552
0
3DFACE
8
stadium_lights_style1
10
-0.184706
20
0.122965
30
1.976383
11
-0.184706
21
0.313818
31
2.086573
12
-0.184706
22
0.186583
32
2.086573
13
-0.184706
23
0.186583
33
2.086573
0
3DFACE
8
stadium_lights_style1
10
-0.184706
20
0.313818
30
2.086573
11
-0.184706
21
0.313818
31
1.866194
12
-0.184706
22
0.377436
32
1.976383
13
-0.184706
23
0.377436
33
1.976383
0
3DFACE
8
stadium_lights_style1
10
-0.184706
20
0.313818
30
1.866194
11
-0.184706
21
0.122965
31
1.976383
12
-0.184706
22
0.186583
32
1.866194
13
-0.184706
23
0.186583
33
1.866194
0
3DFACE
8
stadium_lights_style1
10
-0.184706
20
0.122965
30
1.976383
11
-0.184706
21
0.313818
31
1.866194
12
-0.184706
22
0.313818
32
2.086573
13
-0.184706
23
0.313818
33
2.086573
0
3DFACE
8
stadium_lights_style1
10
-0.184706
20
0.186583
30
1.866194
11
-0.184706
21
0.122965
31
1.976383
12
-0.099538
22
0.212291
32
1.976383
13
-0.099538
23
0.231245
33
1.943552
0
3DFACE
8
stadium_lights_style1
10
-0.184706
20
0.122965
30
1.976383
11
-0.184706
21
0.186583
31
2.086573
12
-0.099538
22
0.231245
32
2.009214
13
-0.099538
23
0.212291
33
1.976383
0
3DFACE
8
stadium_lights_style1
10
-0.184706
20
0.186583
30
2.086573
11
-0.184706
21
0.313818
31
2.086573
12
-0.099538
22
0.269155
32
2.009214
13
-0.099538
23
0.231245
33
2.009214
0
3DFACE
8
stadium_lights_style1
10
-0.184706
20
0.313818
30
2.086573
11
-0.184706
21
0.377436
31
1.976383
12
-0.099538
22
0.288110
32
1.976383
13
-0.099538
23
0.269155
33
2.009214
0
3DFACE
8
stadium_lights_style1
10
-0.184706
20
0.377436
30
1.976383
11
-0.184706
21
0.313818
31
1.866194
12
-0.099538
22
0.269155
32
1.943552
13
-0.099538
23
0.288110
33
1.976383
0
3DFACE
8
stadium_lights_style1
10
-0.184706
20
0.313818
30
1.866194
11
-0.184706
21
0.186583
31
1.866194
12
-0.099538
22
0.231245
32
1.943552
13
-0.099538
23
0.269155
33
1.943552
0
3DFACE
8
stadium_lights_style1
10
-0.184706
20
0.373165
30
1.976383
11
-0.184706
21
0.564019
31
2.086573
12
-0.184706
22
0.436783
32
2.086573
13
-0.184706
23
0.436783
33
2.086573
0
3DFACE
8
stadium_lights_style1
10
-0.184706
20
0.564019
30
2.086573
11
-0.184706
21
0.564018
31
1.866194
12
-0.184706
22
0.627636
32
1.976383
13
-0.184706
23
0.627636
33
1.976383
0
3DFACE
8
stadium_lights_style1
10
-0.184706
20
0.564018
30
1.866194
11
-0.184706
21
0.373165
31
1.976383
12
-0.184706
22
0.436783
32
1.866194
13
-0.184706
23
0.436783
33
1.866194
0
3DFACE
8
stadium_lights_style1
10
-0.184706
20
0.373165
30
1.976383
11
-0.184706
21
0.564018
31
1.866194
12
-0.184706
22
0.564019
32
2.086573
13
-0.184706
23
0.564019
33
2.086573
0
3DFACE
8
stadium_lights_style1
10
-0.184706
20
0.436783
30
1.866194
11
-0.184706
21
0.373165
31
1.976383
12
-0.099538
22
0.462491
32
1.976383
13
-0.099538
23
0.481446
33
1.943552
0
3DFACE
8
stadium_lights_style1
10
-0.184706
20
0.373165
30
1.976383
11
-0.184706
21
0.436783
31
2.086573
12
-0.099538
22
0.481446
32
2.009214
13
-0.099538
23
0.462491
33
1.976383
0
3DFACE
8
stadium_lights_style1
10
-0.184706
20
0.436783
30
2.086573
11
-0.184706
21
0.564019
31
2.086573
12
-0.099538
22
0.519356
32
2.009214
13
-0.099538
23
0.481446
33
2.009214
0
3DFACE
8
stadium_lights_style1
10
-0.184706
20
0.564019
30
2.086573
11
-0.184706
21
0.627636
31
1.976383
12
-0.099538
22
0.538310
32
1.976383
13
-0.099538
23
0.519356
33
2.009214
0
3DFACE
8
stadium_lights_style1
10
-0.184706
20
0.627636
30
1.976383
11
-0.184706
21
0.564018
31
1.866194
12
-0.099538
22
0.519356
32
1.943552
13
-0.099538
23
0.538310
33
1.976383
0
3DFACE
8
stadium_lights_style1
10
-0.184706
20
0.564018
30
1.866194
11
-0.184706
21
0.436783
31
1.866194
12
-0.099538
22
0.481446
32
1.943552
13
-0.099538
23
0.519356
33
1.943552
0
3DFACE
8
stadium_lights_style1
10
-0.184707
20
-0.377435
30
1.976383
11
-0.184707
21
-0.186581
31
2.086573
12
-0.184707
22
-0.313817
32
2.086573
13
-0.184707
23
-0.313817
33
2.086573
0
3DFACE
8
stadium_lights_style1
10
-0.184707
20
-0.186581
30
2.086573
11
-0.184707
21
-0.186581
31
1.866194
12
-0.184707
22
-0.122964
32
1.976383
13
-0.184707
23
-0.122964
33
1.976383
0
3DFACE
8
stadium_lights_style1
10
-0.184707
20
-0.186581
30
1.866194
11
-0.184707
21
-0.377435
31
1.976383
12
-0.184707
22
-0.313817
32
1.866194
13
-0.184707
23
-0.313817
33
1.866194
0
3DFACE
8
stadium_lights_style1
10
-0.184707
20
-0.377435
30
1.976383
11
-0.184707
21
-0.186581
31
1.866194
12
-0.184707
22
-0.186581
32
2.086573
13
-0.184707
23
-0.186581
33
2.086573
0
3DFACE
8
stadium_lights_style1
10
-0.184707
20
-0.313817
30
1.866194
11
-0.184707
21
-0.377435
31
1.976383
12
-0.099539
22
-0.288109
32
1.976383
13
-0.099539
23
-0.269154
33
1.943552
0
3DFACE
8
stadium_lights_style1
10
-0.184707
20
-0.377435
30
1.976383
11
-0.184707
21
-0.313817
31
2.086573
12
-0.099539
22
-0.269154
32
2.009214
13
-0.099539
23
-0.288109
33
1.976383
0
3DFACE
8
stadium_lights_style1
10
-0.184707
20
-0.313817
30
2.086573
11
-0.184707
21
-0.186581
31
2.086573
12
-0.099539
22
-0.231244
32
2.009214
13
-0.099539
23
-0.269154
33
2.009214
0
3DFACE
8
stadium_lights_style1
10
-0.184707
20
-0.186581
30
2.086573
11
-0.184707
21
-0.122964
31
1.976383
12
-0.099539
22
-0.212289
32
1.976383
13
-0.099539
23
-0.231244
33
2.009214
0
3DFACE
8
stadium_lights_style1
10
-0.184707
20
-0.122964
30
1.976383
11
-0.184707
21
-0.186581
31
1.866194
12
-0.099539
22
-0.231244
32
1.943552
13
-0.099539
23
-0.212289
33
1.976383
0
3DFACE
8
stadium_lights_style1
10
-0.184707
20
-0.186581
30
1.866194
11
-0.184707
21
-0.313817
31
1.866194
12
-0.099539
22
-0.269154
32
1.943552
13
-0.099539
23
-0.231244
33
1.943552
0
3DFACE
8
stadium_lights_style1
10
-0.184707
20
-0.627635
30
1.976383
11
-0.184707
21
-0.436782
31
2.086573
12
-0.184707
22
-0.564017
32
2.086573
13
-0.184707
23
-0.564017
33
2.086573
0
3DFACE
8
stadium_lights_style1
10
-0.184707
20
-0.436782
30
2.086573
11
-0.184707
21
-0.436782
31
1.866194
12
-0.184707
22
-0.373164
32
1.976383
13
-0.184707
23
-0.373164
33
1.976383
0
3DFACE
8
stadium_lights_style1
10
-0.184707
20
-0.436782
30
1.866194
11
-0.184707
21
-0.627635
31
1.976383
12
-0.184707
22
-0.564017
32
1.866194
13
-0.184707
23
-0.564017
33
1.866194
0
3DFACE
8
stadium_lights_style1
10
-0.184707
20
-0.627635
30
1.976383
11
-0.184707
21
-0.436782
31
1.866194
12
-0.184707
22
-0.436782
32
2.086573
13
-0.184707
23
-0.436782
33
2.086573
0
3DFACE
8
stadium_lights_style1
10
-0.184707
20
-0.564017
30
1.866194
11
-0.184707
21
-0.627635
31
1.976383
12
-0.099539
22
-0.538309
32
1.976383
13
-0.099539
23
-0.519354
33
1.943552
0
3DFACE
8
stadium_lights_style1
10
-0.184707
20
-0.627635
30
1.976383
11
-0.184707
21
-0.564017
31
2.086573
12
-0.099539
22
-0.519354
32
2.009214
13
-0.099539
23
-0.538309
33
1.976383
0
3DFACE
8
stadium_lights_style1
10
-0.184707
20
-0.564017
30
2.086573
11
-0.184707
21
-0.436782
31
2.086573
12
-0.099539
22
-0.481445
32
2.009214
13
-0.099539
23
-0.519354
33
2.009214
0
3DFACE
8
stadium_lights_style1
10
-0.184707
20
-0.436782
30
2.086573
11
-0.184707
21
-0.373164
31
1.976383
12
-0.099539
22
-0.462490
32
1.976383
13
-0.099539
23
-0.481445
33
2.009214
0
3DFACE
8
stadium_lights_style1
10
-0.184707
20
-0.373164
30
1.976383
11
-0.184707
21
-0.436782
31
1.866194
12
-0.099539
22
-0.481445
32
1.943552
13
-0.099539
23
-0.462490
33
1.976383
0
3DFACE
8
stadium_lights_style1
10
-0.184707
20
-0.436782
30
1.866194
11
-0.184707
21
-0.564017
31
1.866194
12
-0.099539
22
-0.519354
32
1.943552
13
-0.099539
23
-0.481445
33
1.943552
0
3DFACE
8
stadium_lights_style1
10
-0.106620
20
-0.556000
30
1.937064
11
-0.106620
21
-0.556000
31
2.015703
12
-0.083303
22
-0.556000
32
2.015703
13
-0.083303
23
-0.556000
33
1.937064
0
3DFACE
8
stadium_lights_style1
10
-0.083303
20
0.556000
30
1.937064
11
-0.083303
21
0.556000
31
2.015703
12
-0.106620
22
0.556000
32
2.015703
13
-0.106620
23
0.556000
33
1.937064
0
3DFACE
8
stadium_lights_style1
10
-0.106620
20
0.556000
30
1.937064
11
-0.106620
21
0.556000
31
2.015703
12
-0.106620
22
-0.556000
32
2.015703
13
-0.106620
23
-0.556000
33
1.937064
0
3DFACE
8
stadium_lights_style1
10
-0.083303
20
-0.556000
30
1.937064
11
-0.083303
21
-0.556000
31
2.015703
12
-0.083303
22
0.556000
32
2.015703
13
-0.083303
23
0.556000
33
1.937064
0
3DFACE
8
stadium_lights_style1
10
-0.106620
20
-0.556000
30
2.015703
11
-0.106620
21
0.556000
31
2.015703
12
-0.083303
22
0.556000
32
2.015703
13
-0.083303
23
-0.556000
33
2.015703
0
3DFACE
8
stadium_lights_style1
10
-0.106620
20
0.556000
30
1.937064
11
-0.106620
21
-0.556000
31
1.937064
12
-0.083303
22
-0.556000
32
1.937064
13
-0.083303
23
0.556000
33
1.937064
0
3DFACE
8
stadium_lights_style1
10
-0.184708
20
-0.723726
30
2.226584
11
-0.184708
21
-0.503653
31
2.336773
12
-0.184708
22
-0.650369
32
2.336773
13
-0.184708
23
-0.650369
33
2.336773
0
3DFACE
8
stadium_lights_style1
10
-0.184708
20
-0.503653
30
2.336773
11
-0.184708
21
-0.503653
31
2.116395
12
-0.184708
22
-0.430296
32
2.226584
13
-0.184708
23
-0.430296
33
2.226584
0
3DFACE
8
stadium_lights_style1
10
-0.184708
20
-0.503653
30
2.116395
11
-0.184708
21
-0.723726
31
2.226584
12
-0.184708
22
-0.650369
32
2.116395
13
-0.184708
23
-0.650369
33
2.116395
0
3DFACE
8
stadium_lights_style1
10
-0.184708
20
-0.723726
30
2.226584
11
-0.184708
21
-0.503653
31
2.116395
12
-0.184708
22
-0.503653
32
2.336773
13
-0.184708
23
-0.503653
33
2.336773
0
3DFACE
8
stadium_lights_style1
10
-0.184708
20
-0.650369
30
2.116395
11
-0.184708
21
-0.723726
31
2.226584
12
-0.099541
22
-0.620725
32
2.226584
13
-0.099541
23
-0.598868
33
2.193753
0
3DFACE
8
stadium_lights_style1
10
-0.184708
20
-0.723726
30
2.226584
11
-0.184708
21
-0.650369
31
2.336773
12
-0.099541
22
-0.598868
32
2.259415
13
-0.099541
23
-0.620725
33
2.226584
0
3DFACE
8
stadium_lights_style1
10
-0.184708
20
-0.650369
30
2.336773
11
-0.184708
21
-0.503653
31
2.336773
12
-0.099541
22
-0.555154
32
2.259415
13
-0.099541
23
-0.598868
33
2.259415
0
3DFACE
8
stadium_lights_style1
10
-0.184708
20
-0.503653
30
2.336773
11
-0.184708
21
-0.430296
31
2.226584
12
-0.099541
22
-0.533297
32
2.226584
13
-0.099541
23
-0.555154
33
2.259415
0
3DFACE
8
stadium_lights_style1
10
-0.184708
20
-0.430296
30
2.226584
11
-0.184708
21
-0.503653
31
2.116395
12
-0.099541
22
-0.555154
32
2.193753
13
-0.099541
23
-0.533297
33
2.226584
0
3DFACE
8
stadium_lights_style1
10
-0.184708
20
-0.503653
30
2.116395
11
-0.184708
21
-0.650369
31
2.116395
12
-0.099541
22
-0.598868
32
2.193753
13
-0.099541
23
-0.555154
33
2.193753
0
3DFACE
8
stadium_lights_style1
10
-0.184708
20
-0.435219
30
2.226584
11
-0.184708
21
-0.215146
31
2.336773
12
-0.184708
22
-0.361861
32
2.336773
13
-0.184708
23
-0.361861
33
2.336773
0
3DFACE
8
stadium_lights_style1
10
-0.184708
20
-0.215146
30
2.336773
11
-0.184708
21
-0.215146
31
2.116395
12
-0.184708
22
-0.141788
32
2.226584
13
-0.184708
23
-0.141788
33
2.226584
0
3DFACE
8
stadium_lights_style1
10
-0.184708
20
-0.215146
30
2.116395
11
-0.184708
21
-0.435219
31
2.226584
12
-0.184708
22
-0.361861
32
2.116395
13
-0.184708
23
-0.361861
33
2.116395
0
3DFACE
8
stadium_lights_style1
10
-0.184708
20
-0.435219
30
2.226584
11
-0.184708
21
-0.215146
31
2.116395
12
-0.184708
22
-0.215146
32
2.336773
13
-0.184708
23
-0.215146
33
2.336773
0
3DFACE
8
stadium_lights_style1
10
-0.184708
20
-0.361861
30
2.116395
11
-0.184708
21
-0.435219
31
2.226584
12
-0.099541
22
-0.332217
32
2.226584
13
-0.099541
23
-0.310360
33
2.193753
0
3DFACE
8
stadium_lights_style1
10
-0.184708
20
-0.435219
30
2.226584
11
-0.184708
21
-0.361861
31
2.336773
12
-0.099541
22
-0.310360
32
2.259415
13
-0.099541
23
-0.332217
33
2.226584
0
3DFACE
8
stadium_lights_style1
10
-0.184708
20
-0.361861
30
2.336773
11
-0.184708
21
-0.215146
31
2.336773
12
-0.099541
22
-0.266647
32
2.259415
13
-0.099541
23
-0.310360
33
2.259415
0
3DFACE
8
stadium_lights_style1
10
-0.184708
20
-0.215146
30
2.336773
11
-0.184708
21
-0.141788
31
2.226584
12
-0.099541
22
-0.244790
32
2.226584
13
-0.099541
23
-0.266647
33
2.259415
0
3DFACE
8
stadium_lights_style1
10
-0.184708
20
-0.141788
30
2.226584
11
-0.184708
21
-0.215146
31
2.116395
12
-0.099541
22
-0.266647
32
2.193753
13
-0.099541
23
-0.244790
33
2.226584
0
3DFACE
8
stadium_lights_style1
10
-0.184708
20
-0.215146
30
2.116395
11
-0.184708
21
-0.361861
31
2.116395
12
-0.099541
22
-0.310360
32
2.193753
13
-0.099541
23
-0.266647
33
2.193753
0
3DFACE
8
stadium_lights_style1
10
-0.184707
20
0.430296
30
2.226584
11
-0.184707
21
0.650369
31
2.336773
12
-0.184707
22
0.503653
32
2.336773
13
-0.184707
23
0.503653
33
2.336773
0
3DFACE
8
stadium_lights_style1
10
-0.184707
20
0.650369
30
2.336773
11
-0.184707
21
0.650369
31
2.116395
12
-0.184707
22
0.723727
32
2.226584
13
-0.184707
23
0.723727
33
2.226584
0
3DFACE
8
stadium_lights_style1
10
-0.184707
20
0.650369
30
2.116395
11
-0.184707
21
0.430296
31
2.226584
12
-0.184707
22
0.503653
32
2.116395
13
-0.184707
23
0.503653
33
2.116395
0
3DFACE
8
stadium_lights_style1
10
-0.184707
20
0.430296
30
2.226584
11
-0.184707
21
0.650369
31
2.116395
12
-0.184707
22
0.650369
32
2.336773
13
-0.184707
23
0.650369
33
2.336773
0
3DFACE
8
stadium_lights_style1
10
-0.184707
20
0.503653
30
2.116395
11
-0.184707
21
0.430296
31
2.226584
12
-0.099539
22
0.533298
32
2.226584
13
-0.099539
23
0.555154
33
2.193753
0
3DFACE
8
stadium_lights_style1
10
-0.184707
20
0.430296
30
2.226584
11
-0.184707
21
0.503653
31
2.336773
12
-0.099539
22
0.555154
32
2.259415
13
-0.099539
23
0.533298
33
2.226584
0
3DFACE
8
stadium_lights_style1
10
-0.184707
20
0.503653
30
2.336773
11
-0.184707
21
0.650369
31
2.336773
12
-0.099539
22
0.598868
32
2.259415
13
-0.099539
23
0.555154
33
2.259415
0
3DFACE
8
stadium_lights_style1
10
-0.184707
20
0.650369
30
2.336773
11
-0.184707
21
0.723727
31
2.226584
12
-0.099539
22
0.620725
32
2.226584
13
-0.099539
23
0.598868
33
2.259415
0
3DFACE
8
stadium_lights_style1
10
-0.184707
20
0.723727
30
2.226584
11
-0.184707
21
0.650369
31
2.116395
12
-0.099539
22
0.598868
32
2.193753
13
-0.099539
23
0.620725
33
2.226584
0
3DFACE
8
stadium_lights_style1
10
-0.184707
20
0.650369
30
2.116395
11
-0.184707
21
0.503653
31
2.116395
12
-0.099539
22
0.555154
32
2.193753
13
-0.099539
23
0.598868
33
2.193753
0
3DFACE
8
stadium_lights_style1
10
-0.184707
20
0.141790
30
2.226584
11
-0.184707
21
0.361863
31
2.336773
12
-0.184707
22
0.215148
32
2.336773
13
-0.184707
23
0.215148
33
2.336773
0
3DFACE
8
stadium_lights_style1
10
-0.184707
20
0.361863
30
2.336773
11
-0.184707
21
0.361863
31
2.116395
12
-0.184707
22
0.435221
32
2.226584
13
-0.184707
23
0.435221
33
2.226584
0
3DFACE
8
stadium_lights_style1
10
-0.184707
20
0.361863
30
2.116395
11
-0.184707
21
0.141790
31
2.226584
12
-0.184707
22
0.215148
32
2.116395
13
-0.184707
23
0.215148
33
2.116395
0
3DFACE
8
stadium_lights_style1
10
-0.184707
20
0.141790
30
2.226584
11
-0.184707
21
0.361863
31
2.116395
12
-0.184707
22
0.361863
32
2.336773
13
-0.184707
23
0.361863
33
2.336773
0
3DFACE
8
stadium_lights_style1
10
-0.184707
20
0.215148
30
2.116395
11
-0.184707
21
0.141790
31
2.226584
12
-0.099539
22
0.244792
32
2.226584
13
-0.099539
23
0.266649
33
2.193753
0
3DFACE
8
stadium_lights_style1
10
-0.184707
20
0.141790
30
2.226584
11
-0.184707
21
0.215148
31
2.336773
12
-0.099539
22
0.266649
32
2.259415
13
-0.099539
23
0.244792
33
2.226584
0
3DFACE
8
stadium_lights_style1
10
-0.184707
20
0.215148
30
2.336773
11
-0.184707
21
0.361863
31
2.336773
12
-0.099539
22
0.310363
32
2.259415
13
-0.099539
23
0.266649
33
2.259415
0
3DFACE
8
stadium_lights_style1
10
-0.184707
20
0.361863
30
2.336773
11
-0.184707
21
0.435221
31
2.226584
12
-0.099539
22
0.332220
32
2.226584
13
-0.099539
23
0.310363
33
2.259415
0
3DFACE
8
stadium_lights_style1
10
-0.184707
20
0.435221
30
2.226584
11
-0.184707
21
0.361863
31
2.116395
12
-0.099539
22
0.310363
32
2.193753
13
-0.099539
23
0.332220
33
2.226584
0
3DFACE
8
stadium_lights_style1
10
-0.184707
20
0.361863
30
2.116395
11
-0.184707
21
0.215148
31
2.116395
12
-0.099539
22
0.266649
32
2.193753
13
-0.099539
23
0.310363
33
2.193753
0
3DFACE
8
stadium_lights_style1
10
-0.184707
20
-0.146715
30
2.226584
11
-0.184707
21
0.073358
31
2.336773
12
-0.184707
22
-0.073357
32
2.336773
13
-0.184707
23
-0.073357
33
2.336773
0
3DFACE
8
stadium_lights_style1
10
-0.184707
20
0.073358
30
2.336773
11
-0.184707
21
0.073358
31
2.116395
12
-0.184707
22
0.146716
32
2.226584
13
-0.184707
23
0.146716
33
2.226584
0
3DFACE
8
stadium_lights_style1
10
-0.184707
20
0.073358
30
2.116395
11
-0.184707
21
-0.146715
31
2.226584
12
-0.184707
22
-0.073357
32
2.116395
13
-0.184707
23
-0.073357
33
2.116395
0
3DFACE
8
stadium_lights_style1
10
-0.184707
20
-0.146715
30
2.226584
11
-0.184707
21
0.073358
31
2.116395
12
-0.184707
22
0.073358
32
2.336773
13
-0.184707
23
0.073358
33
2.336773
0
3DFACE
8
stadium_lights_style1
10
-0.184707
20
-0.073357
30
2.116395
11
-0.184707
21
-0.146715
31
2.226584
12
-0.099539
22
-0.043714
32
2.226584
13
-0.099539
23
-0.021857
33
2.193753
0
3DFACE
8
stadium_lights_style1
10
-0.184707
20
-0.146715
30
2.226584
11
-0.184707
21
-0.073357
31
2.336773
12
-0.099539
22
-0.021857
32
2.259415
13
-0.099539
23
-0.043714
33
2.226584
0
3DFACE
8
stadium_lights_style1
10
-0.184707
20
-0.073357
30
2.336773
11
-0.184707
21
0.073358
31
2.336773
12
-0.099539
22
0.021857
32
2.259415
13
-0.099539
23
-0.021857
33
2.259415
0
3DFACE
8
stadium_lights_style1
10
-0.184707
20
0.073358
30
2.336773
11
-0.184707
21
0.146716
31
2.226584
12
-0.099539
22
0.043714
32
2.226584
13
-0.099539
23
0.021857
33
2.259415
0
3DFACE
8
stadium_lights_style1
10
-0.184707
20
0.146716
30
2.226584
11
-0.184707
21
0.073358
31
2.116395
12
-0.099539
22
0.021857
32
2.193753
13
-0.099539
23
0.043714
33
2.226584
0
3DFACE
8
stadium_lights_style1
10
-0.184707
20
0.073358
30
2.116395
11
-0.184707
21
-0.073357
31
2.116395
12
-0.099539
22
-0.021857
32
2.193753
13
-0.099539
23
0.021857
33
2.193753
0
3DFACE
8
stadium_lights_style1
10
-0.106620
20
-0.641122
30
2.187265
11
-0.106620
21
-0.641122
31
2.265903
12
-0.083303
22
-0.641122
32
2.265903
13
-0.083303
23
-0.641122
33
2.187265
0
3DFACE
8
stadium_lights_style1
10
-0.083303
20
0.641123
30
2.187265
11
-0.083303
21
0.641123
31
2.265903
12
-0.106620
22
0.641123
32
2.265903
13
-0.106620
23
0.641123
33
2.187265
0
3DFACE
8
stadium_lights_style1
10
-0.106620
20
0.641123
30
2.187265
11
-0.106620
21
0.641123
31
2.265903
12
-0.106620
22
-0.641122
32
2.265903
13
-0.106620
23
-0.641122
33
2.187265
0
3DFACE
8
stadium_lights_style1
10
-0.083303
20
-0.641122
30
2.187265
11
-0.083303
21
-0.641122
31
2.265903
12
-0.083303
22
0.641123
32
2.265903
13
-0.083303
23
0.641123
33
2.187265
0
3DFACE
8
stadium_lights_style1
10
-0.106620
20
-0.641122
30
2.265903
11
-0.106620
21
0.641123
31
2.265903
12
-0.083303
22
0.641123
32
2.265903
13
-0.083303
23
-0.641122
33
2.265903
0
3DFACE
8
stadium_lights_style1
10
-0.106620
20
0.641123
30
2.187265
11
-0.106620
21
-0.641122
31
2.187265
12
-0.083303
22
-0.641122
32
2.187265
13
-0.083303
23
0.641123
33
2.187265
0
3DFACE
8
stadium_lights_style1
10
-0.184708
20
-0.723726
30
2.476784
11
-0.184708
21
-0.503653
31
2.586974
12
-0.184708
22
-0.650369
32
2.586974
13
-0.184708
23
-0.650369
33
2.586974
0
3DFACE
8
stadium_lights_style1
10
-0.184708
20
-0.503653
30
2.586974
11
-0.184708
21
-0.503653
31
2.366595
12
-0.184708
22
-0.430296
32
2.476784
13
-0.184708
23
-0.430296
33
2.476784
0
3DFACE
8
stadium_lights_style1
10
-0.184708
20
-0.503653
30
2.366595
11
-0.184708
21
-0.723726
31
2.476784
12
-0.184708
22
-0.650369
32
2.366595
13
-0.184708
23
-0.650369
33
2.366595
0
3DFACE
8
stadium_lights_style1
10
-0.184708
20
-0.723726
30
2.476784
11
-0.184708
21
-0.503653
31
2.366595
12
-0.184708
22
-0.503653
32
2.586974
13
-0.184708
23
-0.503653
33
2.586974
0
3DFACE
8
stadium_lights_style1
10
-0.184708
20
-0.650369
30
2.366595
11
-0.184708
21
-0.723726
31
2.476784
12
-0.099541
22
-0.620725
32
2.476784
13
-0.099541
23
-0.598868
33
2.443954
0
3DFACE
8
stadium_lights_style1
10
-0.184708
20
-0.723726
30
2.476784
11
-0.184708
21
-0.650369
31
2.586974
12
-0.099541
22
-0.598868
32
2.509615
13
-0.099541
23
-0.620725
33
2.476784
0
3DFACE
8
stadium_lights_style1
10
-0.184708
20
-0.650369
30
2.586974
11
-0.184708
21
-0.503653
31
2.586974
12
-0.099541
22
-0.555154
32
2.509615
13
-0.099541
23
-0.598868
33
2.509615
0
3DFACE
8
stadium_lights_style1
10
-0.184708
20
-0.503653
30
2.586974
11
-0.184708
21
-0.430296
31
2.476784
12
-0.099541
22
-0.533297
32
2.476784
13
-0.099541
23
-0.555154
33
2.509615
0
3DFACE
8
stadium_lights_style1
10
-0.184708
20
-0.430296
30
2.476784
11
-0.184708
21
-0.503653
31
2.366595
12
-0.099541
22
-0.555154
32
2.443954
13
-0.099541
23
-0.533297
33
2.476784
0
3DFACE
8
stadium_lights_style1
10
-0.184708
20
-0.503653
30
2.366595
11
-0.184708
21
-0.650369
31
2.366595
12
-0.099541
22
-0.598868
32
2.443954
13
-0.099541
23
-0.555154
33
2.443954
0
3DFACE
8
stadium_lights_style1
10
-0.184708
20
-0.435219
30
2.476784
11
-0.184708
21
-0.215146
31
2.586974
12
-0.184708
22
-0.361861
32
2.586974
13
-0.184708
23
-0.361861
33
2.586974
0
3DFACE
8
stadium_lights_style1
10
-0.184708
20
-0.215146
30
2.586974
11
-0.184708
21
-0.215146
31
2.366595
12
-0.184708
22
-0.141788
32
2.476784
13
-0.184708
23
-0.141788
33
2.476784
0
3DFACE
8
stadium_lights_style1
10
-0.184708
20
-0.215146
30
2.366595
11
-0.184708
21
-0.435219
31
2.476784
12
-0.184708
22
-0.361861
32
2.366595
13
-0.184708
23
-0.361861
33
2.366595
0
3DFACE
8
stadium_lights_style1
10
-0.184708
20
-0.435219
30
2.476784
11
-0.184708
21
-0.215146
31
2.366595
12
-0.184708
22
-0.215146
32
2.586974
13
-0.184708
23
-0.215146
33
2.586974
0
3DFACE
8
stadium_lights_style1
10
-0.184708
20
-0.361861
30
2.366595
11
-0.184708
21
-0.435219
31
2.476784
12
-0.099541
22
-0.332217
32
2.476784
13
-0.099541
23
-0.310360
33
2.443954
0
3DFACE
8
stadium_lights_style1
10
-0.184708
20
-0.435219
30
2.476784
11
-0.184708
21
-0.361861
31
2.586974
12
-0.099541
22
-0.310360
32
2.509615
13
-0.099541
23
-0.332217
33
2.476784
0
3DFACE
8
stadium_lights_style1
10
-0.184708
20
-0.361861
30
2.586974
11
-0.184708
21
-0.215146
31
2.586974
12
-0.099541
22
-0.266647
32
2.509615
13
-0.099541
23
-0.310360
33
2.509615
0
3DFACE
8
stadium_lights_style1
10
-0.184708
20
-0.215146
30
2.586974
11
-0.184708
21
-0.141788
31
2.476784
12
-0.099541
22
-0.244790
32
2.476784
13
-0.099541
23
-0.266647
33
2.509615
0
3DFACE
8
stadium_lights_style1
10
-0.184708
20
-0.141788
30
2.476784
11
-0.184708
21
-0.215146
31
2.366595
12
-0.099541
22
-0.266647
32
2.443954
13
-0.099541
23
-0.244790
33
2.476784
0
3DFACE
8
stadium_lights_style1
10
-0.184708
20
-0.215146
30
2.366595
11
-0.184708
21
-0.361861
31
2.366595
12
-0.099541
22
-0.310360
32
2.443954
13
-0.099541
23
-0.266647
33
2.443954
0
3DFACE
8
stadium_lights_style1
10
-0.184707
20
0.430296
30
2.476784
11
-0.184707
21
0.650369
31
2.586974
12
-0.184707
22
0.503653
32
2.586974
13
-0.184707
23
0.503653
33
2.586974
0
3DFACE
8
stadium_lights_style1
10
-0.184707
20
0.650369
30
2.586974
11
-0.184707
21
0.650369
31
2.366595
12
-0.184707
22
0.723727
32
2.476784
13
-0.184707
23
0.723727
33
2.476784
0
3DFACE
8
stadium_lights_style1
10
-0.184707
20
0.650369
30
2.366595
11
-0.184707
21
0.430296
31
2.476784
12
-0.184707
22
0.503653
32
2.366595
13
-0.184707
23
0.503653
33
2.366595
0
3DFACE
8
stadium_lights_style1
10
-0.184707
20
0.430296
30
2.476784
11
-0.184707
21
0.650369
31
2.366595
12
-0.184707
22
0.650369
32
2.586974
13
-0.184707
23
0.650369
33
2.586974
0
3DFACE
8
stadium_lights_style1
10
-0.184707
20
0.503653
30
2.366595
11
-0.184707
21
0.430296
31
2.476784
12
-0.099539
22
0.533298
32
2.476784
13
-0.099539
23
0.555154
33
2.443954
0
3DFACE
8
stadium_lights_style1
10
-0.184707
20
0.430296
30
2.476784
11
-0.184707
21
0.503653
31
2.586974
12
-0.099539
22
0.555154
32
2.509615
13
-0.099539
23
0.533298
33
2.476784
0
3DFACE
8
stadium_lights_style1
10
-0.184707
20
0.503653
30
2.586974
11
-0.184707
21
0.650369
31
2.586974
12
-0.099539
22
0.598868
32
2.509615
13
-0.099539
23
0.555154
33
2.509615
0
3DFACE
8
stadium_lights_style1
10
-0.184707
20
0.650369
30
2.586974
11
-0.184707
21
0.723727
31
2.476784
12
-0.099539
22
0.620725
32
2.476784
13
-0.099539
23
0.598868
33
2.509615
0
3DFACE
8
stadium_lights_style1
10
-0.184707
20
0.723727
30
2.476784
11
-0.184707
21
0.650369
31
2.366595
12
-0.099539
22
0.598868
32
2.443954
13
-0.099539
23
0.620725
33
2.476784
0
3DFACE
8
stadium_lights_style1
10
-0.184707
20
0.650369
30
2.366595
11
-0.184707
21
0.503653
31
2.366595
12
-0.099539
22
0.555154
32
2.443954
13
-0.099539
23
0.598868
33
2.443954
0
3DFACE
8
stadium_lights_style1
10
-0.184707
20
0.141790
30
2.476784
11
-0.184707
21
0.361863
31
2.586974
12
-0.184707
22
0.215148
32
2.586974
13
-0.184707
23
0.215148
33
2.586974
0
3DFACE
8
stadium_lights_style1
10
-0.184707
20
0.361863
30
2.586974
11
-0.184707
21
0.361863
31
2.366595
12
-0.184707
22
0.435221
32
2.476784
13
-0.184707
23
0.435221
33
2.476784
0
3DFACE
8
stadium_lights_style1
10
-0.184707
20
0.361863
30
2.366595
11
-0.184707
21
0.141790
31
2.476784
12
-0.184707
22
0.215148
32
2.366595
13
-0.184707
23
0.215148
33
2.366595
0
3DFACE
8
stadium_lights_style1
10
-0.184707
20
0.141790
30
2.476784
11
-0.184707
21
0.361863
31
2.366595
12
-0.184707
22
0.361863
32
2.586974
13
-0.184707
23
0.361863
33
2.586974
0
3DFACE
8
stadium_lights_style1
10
-0.184707
20
0.215148
30
2.366595
11
-0.184707
21
0.141790
31
2.476784
12
-0.099539
22
0.244792
32
2.476784
13
-0.099539
23
0.266649
33
2.443954
0
3DFACE
8
stadium_lights_style1
10
-0.184707
20
0.141790
30
2.476784
11
-0.184707
21
0.215148
31
2.586974
12
-0.099539
22
0.266649
32
2.509615
13
-0.099539
23
0.244792
33
2.476784
0
3DFACE
8
stadium_lights_style1
10
-0.184707
20
0.215148
30
2.586974
11
-0.184707
21
0.361863
31
2.586974
12
-0.099539
22
0.310363
32
2.509615
13
-0.099539
23
0.266649
33
2.509615
0
3DFACE
8
stadium_lights_style1
10
-0.184707
20
0.361863
30
2.586974
11
-0.184707
21
0.435221
31
2.476784
12
-0.099539
22
0.332220
32
2.476784
13
-0.099539
23
0.310363
33
2.509615
0
3DFACE
8
stadium_lights_style1
10
-0.184707
20
0.435221
30
2.476784
11
-0.184707
21
0.361863
31
2.366595
12
-0.099539
22
0.310363
32
2.443954
13
-0.099539
23
0.332220
33
2.476784
0
3DFACE
8
stadium_lights_style1
10
-0.184707
20
0.361863
30
2.366595
11
-0.184707
21
0.215148
31
2.366595
12
-0.099539
22
0.266649
32
2.443954
13
-0.099539
23
0.310363
33
2.443954
0
3DFACE
8
stadium_lights_style1
10
-0.184707
20
-0.146715
30
2.476784
11
-0.184707
21
0.073358
31
2.586974
12
-0.184707
22
-0.073357
32
2.586974
13
-0.184707
23
-0.073357
33
2.586974
0
3DFACE
8
stadium_lights_style1
10
-0.184707
20
0.073358
30
2.586974
11
-0.184707
21
0.073358
31
2.366595
12
-0.184707
22
0.146716
32
2.476784
13
-0.184707
23
0.146716
33
2.476784
0
3DFACE
8
stadium_lights_style1
10
-0.184707
20
0.073358
30
2.366595
11
-0.184707
21
-0.146715
31
2.476784
12
-0.184707
22
-0.073357
32
2.366595
13
-0.184707
23
-0.073357
33
2.366595
0
3DFACE
8
stadium_lights_style1
10
-0.184707
20
-0.146715
30
2.476784
11
-0.184707
21
0.073358
31
2.366595
12
-0.184707
22
0.073358
32
2.586974
13
-0.184707
23
0.073358
33
2.586974
0
3DFACE
8
stadium_lights_style1
10
-0.184707
20
-0.073357
30
2.366595
11
-0.184707
21
-0.146715
31
2.476784
12
-0.099539
22
-0.043714
32
2.476784
13
-0.099539
23
-0.021857
33
2.443954
0
3DFACE
8
stadium_lights_style1
10
-0.184707
20
-0.146715
30
2.476784
11
-0.184707
21
-0.073357
31
2.586974
12
-0.099539
22
-0.021857
32
2.509615
13
-0.099539
23
-0.043714
33
2.476784
0
3DFACE
8
stadium_lights_style1
10
-0.184707
20
-0.073357
30
2.586974
11
-0.184707
21
0.073358
31
2.586974
12
-0.099539
22
0.021857
32
2.509615
13
-0.099539
23
-0.021857
33
2.509615
0
3DFACE
8
stadium_lights_style1
10
-0.184707
20
0.073358
30
2.586974
11
-0.184707
21
0.146716
31
2.476784
12
-0.099539
22
0.043714
32
2.476784
13
-0.099539
23
0.021857
33
2.509615
0
3DFACE
8
stadium_lights_style1
10
-0.184707
20
0.146716
30
2.476784
11
-0.184707
21
0.073358
31
2.366595
12
-0.099539
22
0.021857
32
2.443954
13
-0.099539
23
0.043714
33
2.476784
0
3DFACE
8
stadium_lights_style1
10
-0.184707
20
0.073358
30
2.366595
11
-0.184707
21
-0.073357
31
2.366595
12
-0.099539
22
-0.021857
32
2.443954
13
-0.099539
23
0.021857
33
2.443954
0
3DFACE
8
stadium_lights_style1
10
-0.106620
20
-0.641122
30
2.437465
11
-0.106620
21
-0.641122
31
2.516104
12
-0.083303
22
-0.641122
32
2.516104
13
-0.083303
23
-0.641122
33
2.437465
0
3DFACE
8
stadium_lights_style1
10
-0.083303
20
0.641123
30
2.437465
11
-0.083303
21
0.641123
31
2.516104
12
-0.106620
22
0.641123
32
2.516104
13
-0.106620
23
0.641123
33
2.437465
0
3DFACE
8
stadium_lights_style1
10
-0.106620
20
0.641123
30
2.437465
11
-0.106620
21
0.641123
31
2.516104
12
-0.106620
22
-0.641122
32
2.516104
13
-0.106620
23
-0.641122
33
2.437465
0
3DFACE
8
stadium_lights_style1
10
-0.083303
20
-0.641122
30
2.437465
11
-0.083303
21
-0.641122
31
2.516104
12
-0.083303
22
0.641123
32
2.516104
13
-0.083303
23
0.641123
33
2.437465
0
3DFACE
8
stadium_lights_style1
10
-0.106620
20
-0.641122
30
2.516104
11
-0.106620
21
0.641123
31
2.516104
12
-0.083303
22
0.641123
32
2.516104
13
-0.083303
23
-0.641122
33
2.516104
0
3DFACE
8
stadium_lights_style1
10
-0.106620
20
0.641123
30
2.437465
11
-0.106620
21
-0.641122
31
2.437465
12
-0.083303
22
-0.641122
32
2.437465
13
-0.083303
23
0.641123
33
2.437465
0
3DFACE
8
stadium_lights_style1
10
-0.184708
20
-0.723726
30
2.726984
11
-0.184708
21
-0.503653
31
2.837173
12
-0.184708
22
-0.650369
32
2.837173
13
-0.184708
23
-0.650369
33
2.837173
0
3DFACE
8
stadium_lights_style1
10
-0.184708
20
-0.503653
30
2.837173
11
-0.184708
21
-0.503653
31
2.616795
12
-0.184708
22
-0.430296
32
2.726984
13
-0.184708
23
-0.430296
33
2.726984
0
3DFACE
8
stadium_lights_style1
10
-0.184708
20
-0.503653
30
2.616795
11
-0.184708
21
-0.723726
31
2.726984
12
-0.184708
22
-0.650369
32
2.616795
13
-0.184708
23
-0.650369
33
2.616795
0
3DFACE
8
stadium_lights_style1
10
-0.184708
20
-0.723726
30
2.726984
11
-0.184708
21
-0.503653
31
2.616795
12
-0.184708
22
-0.503653
32
2.837173
13
-0.184708
23
-0.503653
33
2.837173
0
3DFACE
8
stadium_lights_style1
10
-0.184708
20
-0.650369
30
2.616795
11
-0.184708
21
-0.723726
31
2.726984
12
-0.099541
22
-0.620725
32
2.726984
13
-0.099541
23
-0.598868
33
2.694153
0
3DFACE
8
stadium_lights_style1
10
-0.184708
20
-0.723726
30
2.726984
11
-0.184708
21
-0.650369
31
2.837173
12
-0.099541
22
-0.598868
32
2.759815
13
-0.099541
23
-0.620725
33
2.726984
0
3DFACE
8
stadium_lights_style1
10
-0.184708
20
-0.650369
30
2.837173
11
-0.184708
21
-0.503653
31
2.837173
12
-0.099541
22
-0.555154
32
2.759815
13
-0.099541
23
-0.598868
33
2.759815
0
3DFACE
8
stadium_lights_style1
10
-0.184708
20
-0.503653
30
2.837173
11
-0.184708
21
-0.430296
31
2.726984
12
-0.099541
22
-0.533297
32
2.726984
13
-0.099541
23
-0.555154
33
2.759815
0
3DFACE
8
stadium_lights_style1
10
-0.184708
20
-0.430296
30
2.726984
11
-0.184708
21
-0.503653
31
2.616795
12
-0.099541
22
-0.555154
32
2.694153
13
-0.099541
23
-0.533297
33
2.726984
0
3DFACE
8
stadium_lights_style1
10
-0.184708
20
-0.503653
30
2.616795
11
-0.184708
21
-0.650369
31
2.616795
12
-0.099541
22
-0.598868
32
2.694153
13
-0.099541
23
-0.555154
33
2.694153
0
3DFACE
8
stadium_lights_style1
10
-0.184708
20
-0.435219
30
2.726984
11
-0.184708
21
-0.215146
31
2.837173
12
-0.184708
22
-0.361861
32
2.837173
13
-0.184708
23
-0.361861
33
2.837173
0
3DFACE
8
stadium_lights_style1
10
-0.184708
20
-0.215146
30
2.837173
11
-0.184708
21
-0.215146
31
2.616795
12
-0.184708
22
-0.141788
32
2.726984
13
-0.184708
23
-0.141788
33
2.726984
0
3DFACE
8
stadium_lights_style1
10
-0.184708
20
-0.215146
30
2.616795
11
-0.184708
21
-0.435219
31
2.726984
12
-0.184708
22
-0.361861
32
2.616795
13
-0.184708
23
-0.361861
33
2.616795
0
3DFACE
8
stadium_lights_style1
10
-0.184708
20
-0.435219
30
2.726984
11
-0.184708
21
-0.215146
31
2.616795
12
-0.184708
22
-0.215146
32
2.837173
13
-0.184708
23
-0.215146
33
2.837173
0
3DFACE
8
stadium_lights_style1
10
-0.184708
20
-0.361861
30
2.616795
11
-0.184708
21
-0.435219
31
2.726984
12
-0.099541
22
-0.332217
32
2.726984
13
-0.099541
23
-0.310360
33
2.694153
0
3DFACE
8
stadium_lights_style1
10
-0.184708
20
-0.435219
30
2.726984
11
-0.184708
21
-0.361861
31
2.837173
12
-0.099541
22
-0.310360
32
2.759815
13
-0.099541
23
-0.332217
33
2.726984
0
3DFACE
8
stadium_lights_style1
10
-0.184708
20
-0.361861
30
2.837173
11
-0.184708
21
-0.215146
31
2.837173
12
-0.099541
22
-0.266647
32
2.759815
13
-0.099541
23
-0.310360
33
2.759815
0
3DFACE
8
stadium_lights_style1
10
-0.184708
20
-0.215146
30
2.837173
11
-0.184708
21
-0.141788
31
2.726984
12
-0.099541
22
-0.244790
32
2.726984
13
-0.099541
23
-0.266647
33
2.759815
0
3DFACE
8
stadium_lights_style1
10
-0.184708
20
-0.141788
30
2.726984
11
-0.184708
21
-0.215146
31
2.616795
12
-0.099541
22
-0.266647
32
2.694153
13
-0.099541
23
-0.244790
33
2.726984
0
3DFACE
8
stadium_lights_style1
10
-0.184708
20
-0.215146
30
2.616795
11
-0.184708
21
-0.361861
31
2.616795
12
-0.099541
22
-0.310360
32
2.694153
13
-0.099541
23
-0.266647
33
2.694153
0
3DFACE
8
stadium_lights_style1
10
-0.184707
20
0.430296
30
2.726984
11
-0.184707
21
0.650369
31
2.837173
12
-0.184707
22
0.503653
32
2.837173
13
-0.184707
23
0.503653
33
2.837173
0
3DFACE
8
stadium_lights_style1
10
-0.184707
20
0.650369
30
2.837173
11
-0.184707
21
0.650369
31
2.616795
12
-0.184707
22
0.723727
32
2.726984
13
-0.184707
23
0.723727
33
2.726984
0
3DFACE
8
stadium_lights_style1
10
-0.184707
20
0.650369
30
2.616795
11
-0.184707
21
0.430296
31
2.726984
12
-0.184707
22
0.503653
32
2.616795
13
-0.184707
23
0.503653
33
2.616795
0
3DFACE
8
stadium_lights_style1
10
-0.184707
20
0.430296
30
2.726984
11
-0.184707
21
0.650369
31
2.616795
12
-0.184707
22
0.650369
32
2.837173
13
-0.184707
23
0.650369
33
2.837173
0
3DFACE
8
stadium_lights_style1
10
-0.184707
20
0.503653
30
2.616795
11
-0.184707
21
0.430296
31
2.726984
12
-0.099539
22
0.533298
32
2.726984
13
-0.099539
23
0.555154
33
2.694153
0
3DFACE
8
stadium_lights_style1
10
-0.184707
20
0.430296
30
2.726984
11
-0.184707
21
0.503653
31
2.837173
12
-0.099539
22
0.555154
32
2.759815
13
-0.099539
23
0.533298
33
2.726984
0
3DFACE
8
stadium_lights_style1
10
-0.184707
20
0.503653
30
2.837173
11
-0.184707
21
0.650369
31
2.837173
12
-0.099539
22
0.598868
32
2.759815
13
-0.099539
23
0.555154
33
2.759815
0
3DFACE
8
stadium_lights_style1
10
-0.184707
20
0.650369
30
2.837173
11
-0.184707
21
0.723727
31
2.726984
12
-0.099539
22
0.620725
32
2.726984
13
-0.099539
23
0.598868
33
2.759815
0
3DFACE
8
stadium_lights_style1
10
-0.184707
20
0.723727
30
2.726984
11
-0.184707
21
0.650369
31
2.616795
12
-0.099539
22
0.598868
32
2.694153
13
-0.099539
23
0.620725
33
2.726984
0
3DFACE
8
stadium_lights_style1
10
-0.184707
20
0.650369
30
2.616795
11
-0.184707
21
0.503653
31
2.616795
12
-0.099539
22
0.555154
32
2.694153
13
-0.099539
23
0.598868
33
2.694153
0
3DFACE
8
stadium_lights_style1
10
-0.184707
20
0.141790
30
2.726984
11
-0.184707
21
0.361863
31
2.837173
12
-0.184707
22
0.215148
32
2.837173
13
-0.184707
23
0.215148
33
2.837173
0
3DFACE
8
stadium_lights_style1
10
-0.184707
20
0.361863
30
2.837173
11
-0.184707
21
0.361863
31
2.616795
12
-0.184707
22
0.435221
32
2.726984
13
-0.184707
23
0.435221
33
2.726984
0
3DFACE
8
stadium_lights_style1
10
-0.184707
20
0.361863
30
2.616795
11
-0.184707
21
0.141790
31
2.726984
12
-0.184707
22
0.215148
32
2.616795
13
-0.184707
23
0.215148
33
2.616795
0
3DFACE
8
stadium_lights_style1
10
-0.184707
20
0.141790
30
2.726984
11
-0.184707
21
0.361863
31
2.616795
12
-0.184707
22
0.361863
32
2.837173
13
-0.184707
23
0.361863
33
2.837173
0
3DFACE
8
stadium_lights_style1
10
-0.184707
20
0.215148
30
2.616795
11
-0.184707
21
0.141790
31
2.726984
12
-0.099539
22
0.244792
32
2.726984
13
-0.099539
23
0.266649
33
2.694153
0
3DFACE
8
stadium_lights_style1
10
-0.184707
20
0.141790
30
2.726984
11
-0.184707
21
0.215148
31
2.837173
12
-0.099539
22
0.266649
32
2.759815
13
-0.099539
23
0.244792
33
2.726984
0
3DFACE
8
stadium_lights_style1
10
-0.184707
20
0.215148
30
2.837173
11
-0.184707
21
0.361863
31
2.837173
12
-0.099539
22
0.310363
32
2.759815
13
-0.099539
23
0.266649
33
2.759815
0
3DFACE
8
stadium_lights_style1
10
-0.184707
20
0.361863
30
2.837173
11
-0.184707
21
0.435221
31
2.726984
12
-0.099539
22
0.332220
32
2.726984
13
-0.099539
23
0.310363
33
2.759815
0
3DFACE
8
stadium_lights_style1
10
-0.184707
20
0.435221
30
2.726984
11
-0.184707
21
0.361863
31
2.616795
12
-0.099539
22
0.310363
32
2.694153
13
-0.099539
23
0.332220
33
2.726984
0
3DFACE
8
stadium_lights_style1
10
-0.184707
20
0.361863
30
2.616795
11
-0.184707
21
0.215148
31
2.616795
12
-0.099539
22
0.266649
32
2.694153
13
-0.099539
23
0.310363
33
2.694153
0
3DFACE
8
stadium_lights_style1
10
-0.184707
20
-0.146715
30
2.726984
11
-0.184707
21
0.073358
31
2.837173
12
-0.184707
22
-0.073357
32
2.837173
13
-0.184707
23
-0.073357
33
2.837173
0
3DFACE
8
stadium_lights_style1
10
-0.184707
20
0.073358
30
2.837173
11
-0.184707
21
0.073358
31
2.616795
12
-0.184707
22
0.146716
32
2.726984
13
-0.184707
23
0.146716
33
2.726984
0
3DFACE
8
stadium_lights_style1
10
-0.184707
20
0.073358
30
2.616795
11
-0.184707
21
-0.146715
31
2.726984
12
-0.184707
22
-0.073357
32
2.616795
13
-0.184707
23
-0.073357
33
2.616795
0
3DFACE
8
stadium_lights_style1
10
-0.184707
20
-0.146715
30
2.726984
11
-0.184707
21
0.073358
31
2.616795
12
-0.184707
22
0.073358
32
2.837173
13
-0.184707
23
0.073358
33
2.837173
0
3DFACE
8
stadium_lights_style1
10
-0.184707
20
-0.073357
30
2.616795
11
-0.184707
21
-0.146715
31
2.726984
12
-0.099539
22
-0.043714
32
2.726984
13
-0.099539
23
-0.021857
33
2.694153
0
3DFACE
8
stadium_lights_style1
10
-0.184707
20
-0.146715
30
2.726984
11
-0.184707
21
-0.073357
31
2.837173
12
-0.099539
22
-0.021857
32
2.759815
13
-0.099539
23
-0.043714
33
2.726984
0
3DFACE
8
stadium_lights_style1
10
-0.184707
20
-0.073357
30
2.837173
11
-0.184707
21
0.073358
31
2.837173
12
-0.099539
22
0.021857
32
2.759815
13
-0.099539
23
-0.021857
33
2.759815
0
3DFACE
8
stadium_lights_style1
10
-0.184707
20
0.073358
30
2.837173
11
-0.184707
21
0.146716
31
2.726984
12
-0.099539
22
0.043714
32
2.726984
13
-0.099539
23
0.021857
33
2.759815
0
3DFACE
8
stadium_lights_style1
10
-0.184707
20
0.146716
30
2.726984
11
-0.184707
21
0.073358
31
2.616795
12
-0.099539
22
0.021857
32
2.694153
13
-0.099539
23
0.043714
33
2.726984
0
3DFACE
8
stadium_lights_style1
10
-0.184707
20
0.073358
30
2.616795
11
-0.184707
21
-0.073357
31
2.616795
12
-0.099539
22
-0.021857
32
2.694153
13
-0.099539
23
0.021857
33
2.694153
0
3DFACE
8
stadium_lights_style1
10
-0.106620
20
-0.641122
30
2.687665
11
-0.106620
21
-0.641122
31
2.766304
12
-0.083303
22
-0.641122
32
2.766304
13
-0.083303
23
-0.641122
33
2.687665
0
3DFACE
8
stadium_lights_style1
10
-0.083303
20
0.641123
30
2.687665
11
-0.083303
21
0.641123
31
2.766304
12
-0.106620
22
0.641123
32
2.766304
13
-0.106620
23
0.641123
33
2.687665
0
3DFACE
8
stadium_lights_style1
10
-0.106620
20
0.641123
30
2.687665
11
-0.106620
21
0.641123
31
2.766304
12
-0.106620
22
-0.641122
32
2.766304
13
-0.106620
23
-0.641122
33
2.687665
0
3DFACE
8
stadium_lights_style1
10
-0.083303
20
-0.641122
30
2.687665
11
-0.083303
21
-0.641122
31
2.766304
12
-0.083303
22
0.641123
32
2.766304
13
-0.083303
23
0.641123
33
2.687665
0
3DFACE
8
stadium_lights_style1
10
-0.106620
20
-0.641122
30
2.766304
11
-0.106620
21
0.641123
31
2.766304
12
-0.083303
22
0.641123
32
2.766304
13
-0.083303
23
-0.641122
33
2.766304
0
3DFACE
8
stadium_lights_style1
10
-0.106620
20
0.641123
30
2.687665
11
-0.106620
21
-0.641122
31
2.687665
12
-0.083303
22
-0.641122
32
2.687665
13
-0.083303
23
0.641123
33
2.687665
0
3DFACE
8
stadium_lights_style1
10
-0.184708
20
-0.627636
30
2.977182
11
-0.184708
21
-0.436782
31
3.087372
12
-0.184708
22
-0.564018
32
3.087372
13
-0.184708
23
-0.564018
33
3.087372
0
3DFACE
8
stadium_lights_style1
10
-0.184708
20
-0.436782
30
3.087372
11
-0.184708
21
-0.436782
31
2.866993
12
-0.184708
22
-0.373165
32
2.977182
13
-0.184708
23
-0.373165
33
2.977182
0
3DFACE
8
stadium_lights_style1
10
-0.184708
20
-0.436782
30
2.866993
11
-0.184708
21
-0.627636
31
2.977182
12
-0.184708
22
-0.564018
32
2.866993
13
-0.184708
23
-0.564018
33
2.866993
0
3DFACE
8
stadium_lights_style1
10
-0.184708
20
-0.627636
30
2.977182
11
-0.184708
21
-0.436782
31
2.866993
12
-0.184708
22
-0.436782
32
3.087372
13
-0.184708
23
-0.436782
33
3.087372
0
3DFACE
8
stadium_lights_style1
10
-0.184708
20
-0.564018
30
2.866993
11
-0.184708
21
-0.627636
31
2.977182
12
-0.099541
22
-0.538310
32
2.977182
13
-0.099541
23
-0.519355
33
2.944352
0
3DFACE
8
stadium_lights_style1
10
-0.184708
20
-0.627636
30
2.977182
11
-0.184708
21
-0.564018
31
3.087372
12
-0.099541
22
-0.519355
32
3.010013
13
-0.099541
23
-0.538310
33
2.977182
0
3DFACE
8
stadium_lights_style1
10
-0.184708
20
-0.564018
30
3.087372
11
-0.184708
21
-0.436782
31
3.087372
12
-0.099541
22
-0.481445
32
3.010013
13
-0.099541
23
-0.519355
33
3.010013
0
3DFACE
8
stadium_lights_style1
10
-0.184708
20
-0.436782
30
3.087372
11
-0.184708
21
-0.373165
31
2.977182
12
-0.099541
22
-0.462490
32
2.977182
13
-0.099541
23
-0.481445
33
3.010013
0
3DFACE
8
stadium_lights_style1
10
-0.184708
20
-0.373165
30
2.977182
11
-0.184708
21
-0.436782
31
2.866993
12
-0.099541
22
-0.481445
32
2.944352
13
-0.099541
23
-0.462490
33
2.977182
0
3DFACE
8
stadium_lights_style1
10
-0.184708
20
-0.436782
30
2.866993
11
-0.184708
21
-0.564018
31
2.866993
12
-0.099541
22
-0.519355
32
2.944352
13
-0.099541
23
-0.481445
33
2.944352
0
3DFACE
8
stadium_lights_style1
10
-0.184708
20
-0.377434
30
2.977182
11
-0.184708
21
-0.186581
31
3.087372
12
-0.184708
22
-0.313816
32
3.087372
13
-0.184708
23
-0.313816
33
3.087372
0
3DFACE
8
stadium_lights_style1
10
-0.184708
20
-0.186581
30
3.087372
11
-0.184708
21
-0.186581
31
2.866993
12
-0.184708
22
-0.122963
32
2.977182
13
-0.184708
23
-0.122963
33
2.977182
0
3DFACE
8
stadium_lights_style1
10
-0.184708
20
-0.186581
30
2.866993
11
-0.184708
21
-0.377434
31
2.977182
12
-0.184708
22
-0.313816
32
2.866993
13
-0.184708
23
-0.313816
33
2.866993
0
3DFACE
8
stadium_lights_style1
10
-0.184708
20
-0.377434
30
2.977182
11
-0.184708
21
-0.186581
31
2.866993
12
-0.184708
22
-0.186581
32
3.087372
13
-0.184708
23
-0.186581
33
3.087372
0
3DFACE
8
stadium_lights_style1
10
-0.184708
20
-0.313816
30
2.866993
11
-0.184708
21
-0.377434
31
2.977182
12
-0.099541
22
-0.288108
32
2.977182
13
-0.099541
23
-0.269153
33
2.944352
0
3DFACE
8
stadium_lights_style1
10
-0.184708
20
-0.377434
30
2.977182
11
-0.184708
21
-0.313816
31
3.087372
12
-0.099541
22
-0.269153
32
3.010013
13
-0.099541
23
-0.288108
33
2.977182
0
3DFACE
8
stadium_lights_style1
10
-0.184708
20
-0.313816
30
3.087372
11
-0.184708
21
-0.186581
31
3.087372
12
-0.099541
22
-0.231244
32
3.010013
13
-0.099541
23
-0.269153
33
3.010013
0
3DFACE
8
stadium_lights_style1
10
-0.184708
20
-0.186581
30
3.087372
11
-0.184708
21
-0.122963
31
2.977182
12
-0.099541
22
-0.212289
32
2.977182
13
-0.099541
23
-0.231244
33
3.010013
0
3DFACE
8
stadium_lights_style1
10
-0.184708
20
-0.122963
30
2.977182
11
-0.184708
21
-0.186581
31
2.866993
12
-0.099541
22
-0.231244
32
2.944352
13
-0.099541
23
-0.212289
33
2.977182
0
3DFACE
8
stadium_lights_style1
10
-0.184708
20
-0.186581
30
2.866993
11
-0.184708
21
-0.313816
31
2.866993
12
-0.099541
22
-0.269153
32
2.944352
13
-0.099541
23
-0.231244
33
2.944352
0
3DFACE
8
stadium_lights_style1
10
-0.184707
20
0.373165
30
2.977182
11
-0.184707
21
0.564019
31
3.087372
12
-0.184707
22
0.436783
32
3.087372
13
-0.184707
23
0.436783
33
3.087372
0
3DFACE
8
stadium_lights_style1
10
-0.184707
20
0.564019
30
3.087372
11
-0.184707
21
0.564018
31
2.866993
12
-0.184707
22
0.627636
32
2.977182
13
-0.184707
23
0.627636
33
2.977182
0
3DFACE
8
stadium_lights_style1
10
-0.184707
20
0.564018
30
2.866993
11
-0.184707
21
0.373165
31
2.977182
12
-0.184707
22
0.436783
32
2.866993
13
-0.184707
23
0.436783
33
2.866993
0
3DFACE
8
stadium_lights_style1
10
-0.184707
20
0.373165
30
2.977182
11
-0.184707
21
0.564018
31
2.866993
12
-0.184707
22
0.564019
32
3.087372
13
-0.184707
23
0.564019
33
3.087372
0
3DFACE
8
stadium_lights_style1
10
-0.184707
20
0.436783
30
2.866993
11
-0.184707
21
0.373165
31
2.977182
12
-0.099539
22
0.462491
32
2.977182
13
-0.099539
23
0.481446
33
2.944352
0
3DFACE
8
stadium_lights_style1
10
-0.184707
20
0.373165
30
2.977182
11
-0.184707
21
0.436783
31
3.087372
12
-0.099539
22
0.481446
32
3.010013
13
-0.099539
23
0.462491
33
2.977182
0
3DFACE
8
stadium_lights_style1
10
-0.184707
20
0.436783
30
3.087372
11
-0.184707
21
0.564019
31
3.087372
12
-0.099539
22
0.519356
32
3.010013
13
-0.099539
23
0.481446
33
3.010013
0
3DFACE
8
stadium_lights_style1
10
-0.184707
20
0.564019
30
3.087372
11
-0.184707
21
0.627636
31
2.977182
12
-0.099539
22
0.538310
32
2.977182
13
-0.099539
23
0.519356
33
3.010013
0
3DFACE
8
stadium_lights_style1
10
-0.184707
20
0.627636
30
2.977182
11
-0.184707
21
0.564018
31
2.866993
12
-0.099539
22
0.519356
32
2.944352
13
-0.099539
23
0.538310
33
2.977182
0
3DFACE
8
stadium_lights_style1
10
-0.184707
20
0.564018
30
2.866993
11
-0.184707
21
0.436783
31
2.866993
12
-0.099539
22
0.481446
32
2.944352
13
-0.099539
23
0.519356
33
2.944352
0
3DFACE
8
stadium_lights_style1
10
-0.184707
20
0.122965
30
2.977182
11
-0.184707
21
0.313818
31
3.087372
12
-0.184707
22
0.186583
32
3.087372
13
-0.184707
23
0.186583
33
3.087372
0
3DFACE
8
stadium_lights_style1
10
-0.184707
20
0.313818
30
3.087372
11
-0.184707
21
0.313818
31
2.866993
12
-0.184707
22
0.377436
32
2.977182
13
-0.184707
23
0.377436
33
2.977182
0
3DFACE
8
stadium_lights_style1
10
-0.184707
20
0.313818
30
2.866993
11
-0.184707
21
0.122965
31
2.977182
12
-0.184707
22
0.186583
32
2.866993
13
-0.184707
23
0.186583
33
2.866993
0
3DFACE
8
stadium_lights_style1
10
-0.184707
20
0.122965
30
2.977182
11
-0.184707
21
0.313818
31
2.866993
12
-0.184707
22
0.313818
32
3.087372
13
-0.184707
23
0.313818
33
3.087372
0
3DFACE
8
stadium_lights_style1
10
-0.184707
20
0.186583
30
2.866993
11
-0.184707
21
0.122965
31
2.977182
12
-0.099539
22
0.212291
32
2.977182
13
-0.099539
23
0.231245
33
2.944352
0
3DFACE
8
stadium_lights_style1
10
-0.184707
20
0.122965
30
2.977182
11
-0.184707
21
0.186583
31
3.087372
12
-0.099539
22
0.231245
32
3.010013
13
-0.099539
23
0.212291
33
2.977182
0
3DFACE
8
stadium_lights_style1
10
-0.184707
20
0.186583
30
3.087372
11
-0.184707
21
0.313818
31
3.087372
12
-0.099539
22
0.269155
32
3.010013
13
-0.099539
23
0.231245
33
3.010013
0
3DFACE
8
stadium_lights_style1
10
-0.184707
20
0.313818
30
3.087372
11
-0.184707
21
0.377436
31
2.977182
12
-0.099539
22
0.288110
32
2.977182
13
-0.099539
23
0.269155
33
3.010013
0
3DFACE
8
stadium_lights_style1
10
-0.184707
20
0.377436
30
2.977182
11
-0.184707
21
0.313818
31
2.866993
12
-0.099539
22
0.269155
32
2.944352
13
-0.099539
23
0.288110
33
2.977182
0
3DFACE
8
stadium_lights_style1
10
-0.184707
20
0.313818
30
2.866993
11
-0.184707
21
0.186583
31
2.866993
12
-0.099539
22
0.231245
32
2.944352
13
-0.099539
23
0.269155
33
2.944352
0
3DFACE
8
stadium_lights_style1
10
-0.184707
20
-0.127236
30
2.977182
11
-0.184707
21
0.063618
31
3.087372
12
-0.184707
22
-0.063618
32
3.087372
13
-0.184707
23
-0.063618
33
3.087372
0
3DFACE
8
stadium_lights_style1
10
-0.184707
20
0.063618
30
3.087372
11
-0.184707
21
0.063618
31
2.866993
12
-0.184707
22
0.127236
32
2.977182
13
-0.184707
23
0.127236
33
2.977182
0
3DFACE
8
stadium_lights_style1
10
-0.184707
20
0.063618
30
2.866993
11
-0.184707
21
-0.127236
31
2.977182
12
-0.184707
22
-0.063618
32
2.866993
13
-0.184707
23
-0.063618
33
2.866993
0
3DFACE
8
stadium_lights_style1
10
-0.184707
20
-0.127236
30
2.977182
11
-0.184707
21
0.063618
31
2.866993
12
-0.184707
22
0.063618
32
3.087372
13
-0.184707
23
0.063618
33
3.087372
0
3DFACE
8
stadium_lights_style1
10
-0.184707
20
-0.063618
30
2.866993
11
-0.184707
21
-0.127236
31
2.977182
12
-0.099539
22
-0.037910
32
2.977182
13
-0.099539
23
-0.018955
33
2.944352
0
3DFACE
8
stadium_lights_style1
10
-0.184707
20
-0.127236
30
2.977182
11
-0.184707
21
-0.063618
31
3.087372
12
-0.099539
22
-0.018955
32
3.010013
13
-0.099539
23
-0.037910
33
2.977182
0
3DFACE
8
stadium_lights_style1
10
-0.184707
20
-0.063618
30
3.087372
11
-0.184707
21
0.063618
31
3.087372
12
-0.099539
22
0.018955
32
3.010013
13
-0.099539
23
-0.018955
33
3.010013
0
3DFACE
8
stadium_lights_style1
10
-0.184707
20
0.063618
30
3.087372
11
-0.184707
21
0.127236
31
2.977182
12
-0.099539
22
0.037910
32
2.977182
13
-0.099539
23
0.018955
33
3.010013
0
3DFACE
8
stadium_lights_style1
10
-0.184707
20
0.127236
30
2.977182
11
-0.184707
21
0.063618
31
2.866993
12
-0.099539
22
0.018955
32
2.944352
13
-0.099539
23
0.037910
33
2.977182
0
3DFACE
8
stadium_lights_style1
10
-0.184707
20
0.063618
30
2.866993
11
-0.184707
21
-0.063618
31
2.866993
12
-0.099539
22
-0.018955
32
2.944352
13
-0.099539
23
0.018955
33
2.944352
0
3DFACE
8
stadium_lights_style1
10
-0.106620
20
-0.556000
30
2.937864
11
-0.106620
21
-0.556000
31
3.016503
12
-0.083303
22
-0.556000
32
3.016503
13
-0.083303
23
-0.556000
33
2.937864
0
3DFACE
8
stadium_lights_style1
10
-0.083303
20
0.556000
30
2.937864
11
-0.083303
21
0.556000
31
3.016503
12
-0.106620
22
0.556000
32
3.016503
13
-0.106620
23
0.556000
33
2.937864
0
3DFACE
8
stadium_lights_style1
10
-0.106620
20
0.556000
30
2.937864
11
-0.106620
21
0.556000
31
3.016503
12
-0.106620
22
-0.556000
32
3.016503
13
-0.106620
23
-0.556000
33
2.937864
0
3DFACE
8
stadium_lights_style1
10
-0.083303
20
-0.556000
30
2.937864
11
-0.083303
21
-0.556000
31
3.016503
12
-0.083303
22
0.556000
32
3.016503
13
-0.083303
23
0.556000
33
2.937864
0
3DFACE
8
stadium_lights_style1
10
-0.106620
20
-0.556000
30
3.016503
11
-0.106620
21
0.556000
31
3.016503
12
-0.083303
22
0.556000
32
3.016503
13
-0.083303
23
-0.556000
33
3.016503
0
3DFACE
8
stadium_lights_style1
10
-0.106620
20
0.556000
30
2.937864
11
-0.106620
21
-0.556000
31
2.937864
12
-0.083303
22
-0.556000
32
2.937864
13
-0.083303
23
0.556000
33
2.937864
0
ENDSEC
0
EOF
