# 3ds Max Wavefront OBJ Exporter v0.97b - (c)2007 guruware
# File Created: 02.05.2011 16:16:44

newmtl CB_head
	Ns 19.0000
	Ni 1.5000
	d 1.0000
	Tr 0.0000
	Tf 1.0000 1.0000 1.0000 
	illum 2
	Ka 0.5880 0.5880 0.5880
	Kd 0.5880 0.5880 0.5880
	Ks 0.0450 0.0450 0.0450
	Ke 0.0000 0.0000 0.0000
	map_Ka ..\..\textures\WH2_D.tga
	map_Kd ..\..\textures\WH2_D.tga

newmtl head
	Ns 10.0000
	Ni 1.5000
	d 1.0000
	Tr 0.0000
	Tf 1.0000 1.0000 1.0000 
	illum 2
	Ka 0.5882 0.5882 0.5882
	Kd 0.5882 0.5882 0.5882
	Ks 0.0000 0.0000 0.0000
	Ke 0.0000 0.0000 0.0000
	map_Ka ..\..\textures\WH2_D.tga
	map_Kd ..\..\textures\WH2_D.tga
