# 3ds Max Wavefront OBJ Exporter v0.97b - (c)2007 guruware
# File Created: 02.05.2011 16:13:30

newmtl arms
	Ns 10.0000
	Ni 1.5000
	d 1.0000
	Tr 0.0000
	Tf 1.0000 1.0000 1.0000 
	illum 2
	Ka 0.5882 0.5882 0.5882
	Kd 0.5882 0.5882 0.5882
	Ks 0.1080 0.1080 0.1080
	Ke 0.0000 0.0000 0.0000
	map_Ka ..\..\textures\W_PitcherArm_D.tga
	map_Kd ..\..\textures\W_PitcherArm_D.tga

newmtl jersey
	Ns 10.0000
	Ni 1.5000
	d 1.0000
	Tr 0.0000
	Tf 1.0000 1.0000 1.0000 
	illum 2
	Ka 0.5882 0.5882 0.5882
	Kd 0.5882 0.5882 0.5882
	Ks 0.0000 0.0000 0.0000
	Ke 0.0000 0.0000 0.0000
	map_Ka ..\..\textures\MLBplayerJerseyBlue_D.tga
	map_Kd ..\..\textures\MLBplayerJerseyBlue_D.tga

newmtl shorts
	Ns 25.0000
	Ni 1.5000
	d 1.0000
	Tr 0.0000
	Tf 1.0000 1.0000 1.0000 
	illum 2
	Ka 0.5882 0.5882 0.5882
	Kd 0.5882 0.5882 0.5882
	Ks 0.0000 0.0000 0.0000
	Ke 0.0000 0.0000 0.0000
	map_Ka ..\..\textures\MLBplayerShortsBlue_D.tga
	map_Kd ..\..\textures\MLBplayerShortsBlue_D.tga

newmtl glove
	Ns 17.0000
	Ni 1.5000
	d 1.0000
	Tr 0.0000
	Tf 1.0000 1.0000 1.0000 
	illum 2
	Ka 0.5882 0.5882 0.5882
	Kd 0.5882 0.5882 0.5882
	Ks 0.1260 0.1260 0.1260
	Ke 0.0000 0.0000 0.0000
	map_Ka ..\..\textures\pitcherGlove_D.tga
	map_Kd ..\..\textures\pitcherGlove_D.tga

newmtl hat
	Ns 10.0000
	Ni 1.5000
	d 1.0000
	Tr 0.0000
	Tf 1.0000 1.0000 1.0000 
	illum 2
	Ka 0.5882 0.5882 0.5882
	Kd 0.5882 0.5882 0.5882
	Ks 0.0000 0.0000 0.0000
	Ke 0.0000 0.0000 0.0000
	map_Ka ..\..\textures\hat_D.tga
	map_Kd ..\..\textures\hat_D.tga

newmtl Material__274
	Ns 19.0000
	Ni 1.5000
	d 1.0000
	Tr 0.0000
	Tf 1.0000 1.0000 1.0000 
	illum 2
	Ka 0.5880 0.5880 0.5880
	Kd 0.5880 0.5880 0.5880
	Ks 0.0450 0.0450 0.0450
	Ke 0.0000 0.0000 0.0000
	map_Ka ..\..\textures\WH2_D.tga
	map_Kd ..\..\textures\WH2_D.tga
